                                              UpGrad Intership Projet
-------------------------------------------------------------------------------------------------------------------------
                                             Phone Directory Application
                                        --------------------------------------
Dear sir/mam,
Following are steps to run the project:-

Step1:-Install: npm install -g http-server

Step2:-After installation cd into your project folder and run http-server -o

Looking forward to hear from you.
Thank you
